month,country,clusterCentroid
2-2020,Korea,22.198522167487685
2-2020,Italy,11.26896551724138
2-2020,Iran,9.073399014778325
2-2020,France,0.13284770988365996
2-2020,Germany,0.13284770988365996
2-2020,Japan,0.13284770988365996
2-2020,Spain,0.13284770988365996
2-2020,US,0.13284770988365996
2-2020,Kuwait,0.13284770988365996
2-2020,Switzerland,0.13284770988365996
2-2020,Bahrain,0.13284770988365996
2-2020,United Kingdom,0.13284770988365996
2-2020,Iraq,0.13284770988365996
2-2020,Norway,0.13284770988365996
2-2020,Netherlands,0.13284770988365996
2-2020,Austria,0.13284770988365996
2-2020,Ontario,0.13284770988365996
2-2020,Sweden,0.13284770988365996
2-2020,Lebanon,0.13284770988365996
2-2020,Israel,0.13284770988365996
2-2020,San Marino,0.13284770988365996
2-2020,Belgium,0.13284770988365996
2-2020,United Arab Emirates,0.13284770988365996
2-2020,Greece,0.13284770988365996
2-2020,Iceland,0.13284770988365996
2-2020,Ecuador,0.13284770988365996
2-2020,Taiwan*,0.13284770988365996
2-2020,Croatia,0.13284770988365996
2-2020,Victoria,0.13284770988365996
2-2020,Finland,0.13284770988365996
2-2020,Mexico,0.13284770988365996
2-2020,Oman,0.13284770988365996
2-2020,Denmark,0.13284770988365996
2-2020,Pakistan,0.13284770988365996
2-2020,Azerbaijan,0.13284770988365996
2-2020,Czechia,0.13284770988365996
2-2020,Qatar,0.13284770988365996
2-2020,Algeria,0.13284770988365996
2-2020,Georgia,0.13284770988365996
2-2020,Romania,0.13284770988365996
2-2020,Indonesia,0.13284770988365996
2-2020,Portugal,0.13284770988365996
2-2020,Queensland,0.13284770988365996
2-2020,New South Wales,0.13284770988365996
2-2020,Western Australia,0.13284770988365996
2-2020,Brazil,0.13284770988365996
2-2020,Andorra,0.13284770988365996
2-2020,Tasmania,0.13284770988365996
2-2020,India,0.13284770988365996
2-2020,Latvia,0.13284770988365996
3-2020,US,951.6693548387096
3-2020,Spain,291.3
3-2020,Germany,291.3
3-2020,Italy,128.20000000000002
3-2020,France,128.20000000000002
3-2020,United Kingdom,128.20000000000002
3-2020,Iran,128.20000000000002
3-2020,Turkey,128.20000000000002
3-2020,Belgium,12.579166666666667
3-2020,Switzerland,12.579166666666667
3-2020,Netherlands,12.579166666666667
3-2020,Portugal,12.579166666666667
3-2020,Brazil,12.579166666666667
3-2020,Austria,12.579166666666667
3-2020,Israel,12.579166666666667
3-2020,Quebec,12.579166666666667
3-2020,Russia,12.579166666666667
3-2020,Sweden,12.579166666666667
3-2020,Ireland,12.579166666666667
3-2020,Chile,12.579166666666667
3-2020,Czechia,12.579166666666667
3-2020,Ecuador,12.579166666666667
3-2020,Ontario,12.579166666666667
3-2020,India,12.579166666666667
3-2020,Philippines,12.579166666666667
3-2020,Poland,12.579166666666667
3-2020,Romania,12.579166666666667
3-2020,Norway,12.579166666666667
3-2020,Pakistan,12.579166666666667
3-2020,Luxembourg,12.579166666666667
3-2020,Denmark,12.579166666666667
3-2020,Malaysia,12.579166666666667
3-2020,New South Wales,12.579166666666667
3-2020,Saudi Arabia,12.579166666666667
3-2020,Thailand,12.579166666666667
3-2020,Dominican Republic,12.579166666666667
3-2020,Indonesia,12.579166666666667
3-2020,Mexico,12.579166666666667
3-2020,Peru,12.579166666666667
3-2020,Japan,12.579166666666667
3-2020,Panama,12.579166666666667
3-2020,Serbia,12.579166666666667
3-2020,South Africa,12.579166666666667
3-2020,Colombia,12.579166666666667
3-2020,Ukraine,12.579166666666667
3-2020,Argentina,12.579166666666667
3-2020,United Arab Emirates,12.579166666666667
3-2020,Algeria,12.579166666666667
3-2020,Greece,12.579166666666667
3-2020,Alberta,12.579166666666667
4-2020,Russia,272.60778642936594
4-2020,Brazil,177.4238042269188
4-2020,Peru,44.31889754047708
4-2020,India,44.31889754047708
4-2020,Saudi Arabia,44.31889754047708
4-2020,Ecuador,44.31889754047708
4-2020,Mexico,44.31889754047708
4-2020,Belarus,44.31889754047708
4-2020,Pakistan,44.31889754047708
4-2020,Singapore,44.31889754047708
4-2020,Qatar,44.31889754047708
4-2020,Bangladesh,4.934719488890791
4-2020,Chile,4.934719488890791
4-2020,Ukraine,4.934719488890791
4-2020,United Arab Emirates,4.934719488890791
4-2020,South Africa,4.934719488890791
4-2020,Quebec,4.934719488890791
4-2020,Kuwait,4.934719488890791
4-2020,Alberta,4.934719488890791
4-2020,Colombia,4.934719488890791
4-2020,Nigeria,4.934719488890791
4-2020,Egypt,4.934719488890791
4-2020,Kazakhstan,4.934719488890791
4-2020,Sweden,4.934719488890791
4-2020,Indonesia,4.934719488890791
4-2020,Afghanistan,4.934719488890791
4-2020,Dominican Republic,4.934719488890791
4-2020,Ghana,4.934719488890791
4-2020,Bolivia,4.934719488890791
4-2020,Guinea,4.934719488890791
4-2020,Senegal,4.934719488890791
4-2020,Bahrain,4.934719488890791
4-2020,Ontario,4.934719488890791
4-2020,Sudan,4.934719488890791
4-2020,Armenia,4.934719488890791
4-2020,Oman,4.934719488890791
4-2020,Panama,4.934719488890791
4-2020,Maldives,4.934719488890791
4-2020,United Kingdom,4.934719488890791
4-2020,Algeria,4.934719488890791
4-2020,Argentina,4.934719488890791
4-2020,Honduras,4.934719488890791
4-2020,Somalia,4.934719488890791
4-2020,Morocco,4.934719488890791
4-2020,Bulgaria,4.934719488890791
4-2020,Sri Lanka,4.934719488890791
4-2020,Guatemala,4.934719488890791
4-2020,Cameroon,4.934719488890791
4-2020,Congo (Kinshasa),4.934719488890791
4-2020,Tanzania,4.934719488890791
5-2020,Brazil,583.5452991452992
5-2020,India,168.602905982906
5-2020,Chile,168.602905982906
5-2020,Peru,58.99327635327636
5-2020,Mexico,58.99327635327636
5-2020,Bangladesh,58.99327635327636
5-2020,Qatar,58.99327635327636
5-2020,Iran,58.99327635327636
5-2020,South Africa,58.99327635327636
5-2020,Pakistan,8.668392745465914
5-2020,Saudi Arabia,8.668392745465914
5-2020,Argentina,8.668392745465914
5-2020,Egypt,8.668392745465914
5-2020,Afghanistan,8.668392745465914
5-2020,Bolivia,8.668392745465914
5-2020,Kuwait,8.668392745465914
5-2020,Colombia,8.668392745465914
5-2020,Oman,8.668392745465914
5-2020,Indonesia,8.668392745465914
5-2020,Armenia,8.668392745465914
5-2020,United Arab Emirates,8.668392745465914
5-2020,Guatemala,8.668392745465914
5-2020,Kazakhstan,8.668392745465914
5-2020,Iraq,8.668392745465914
5-2020,Cameroon,8.668392745465914
5-2020,Djibouti,8.668392745465914
5-2020,Tajikistan,8.668392745465914
5-2020,Panama,8.668392745465914
5-2020,Honduras,8.668392745465914
5-2020,Sudan,8.668392745465914
5-2020,Congo (Kinshasa),8.668392745465914
5-2020,Haiti,8.668392745465914
5-2020,Nicaragua,8.668392745465914
5-2020,Azerbaijan,8.668392745465914
5-2020,Nepal,8.668392745465914
5-2020,Bahrain,8.668392745465914
5-2020,Philippines,8.668392745465914
5-2020,South Sudan,8.668392745465914
5-2020,Venezuela,8.668392745465914
5-2020,Gabon,8.668392745465914
5-2020,Kenya,8.668392745465914
5-2020,Sri Lanka,8.668392745465914
5-2020,Poland,8.668392745465914
5-2020,Ethiopia,8.668392745465914
5-2020,Ecuador,8.668392745465914
5-2020,Moldova,8.668392745465914
5-2020,Nigeria,8.668392745465914
5-2020,Belarus,8.668392745465914
5-2020,Central African Republic,8.668392745465914
5-2020,Madagascar,8.668392745465914



